{
    "items": [
      {
        "title": "AMP YouTube Channel",
        "url": "https://www.youtube.com/channel/UCXPBsjgKKG2HqsKBhWA4uQw"
      },
      {
        "title": "AMPproject.org",
        "url": "https://www.ampproject.org/"
      },
      {
        "title": "AMP By Example",
        "url": "https://ampbyexample.com/"
      },
      {
        "title": "AMP Start",
        "url": "https://ampstart.com/"
      }
    ]
   }