{
    "items": [{
        "img": "pubs/images/Layer-42.png",
        "height": 367,
        "width": 587,
        "name": "Jasmin Wijaya #1",
        "youtube": 188,
        "twitter": "13M",
        "instagram": "5M",
        "facebook": "582M",
        "description": "Lorem ipsum dolor sit amet, consectetur adipiscing elit sed do.",
        "url": "creator-details.html"
    }, {
        "img": "pubs/images/Layer-44.png",
        "height": 320,
        "width": 532,
        "name": "Jasmin Wijaya #2",
        "youtube": 188,
        "twitter": "13M",
        "instagram": "5M",
        "facebook": "582M",
        "description": "Lorem ipsum dolor sit amet, consectetur adipiscing elit sed do.",
        "url": "creator-details.html"
    }, {
        "img": "pubs/images/Layer-46.png",
        "height": 706,
        "width": 483,
        "name": "Jasmin Wijaya #3",
        "youtube": 188,
        "twitter": "13M",
        "instagram": "5M",
        "facebook": "582M",
        "description": "Lorem ipsum dolor sit amet, consectetur adipiscing elit sed do.",
        "url": "./creator-details.html"
    }, {
        "img": "pubs/images/Layer-43.png",
        "height": 720,
        "width": 448,
        "name": "Jasmin Wijaya #4",
        "youtube": 188,
        "twitter": "13M",
        "instagram": "5M",
        "facebook": "582M",
        "description": "Lorem ipsum dolor sit amet, consectetur adipiscing elit sed do.",
        "url": "creator-details.html"
    }, {
        "img": "pubs/images/Layer-47.png",
        "height": 675,
        "width": 450,
        "name": "Jasmin Wijaya #5",
        "youtube": 188,
        "twitter": "13M",
        "instagram": "5M",
        "facebook": "582M",
        "description": "Lorem ipsum dolor sit amet, consectetur adipiscing elit sed do.",
        "url": "creator-details.html"
    }]
}