{
    "items":[{
        "img": "pubs/images/brand-001.png"
    },{
        "img": "pubs/images/brand-002.png"
    },{
        "img": "pubs/images/brand-003.png"
    },{
        "img": "pubs/images/brand-004.png"
    },{
        "img": "pubs/images/brand-005.png"
    },{
        "img": "pubs/images/brand-006.png"
    },{
        "img": "pubs/images/brand-007.png"
    },{
        "img": "pubs/images/brand-008.png"
    },{
        "img": "pubs/images/brand-009.png"
    },{
        "img": "pubs/images/brand-010.png"
    }]
}