{
    "items": [
        {
            "img": "pubs/images/Layer-43-copy.png",
            "brand": "pubs/images/Layer-6.png",
                "title": "CAMPAIGN TITLE",
                "text": "Sed ut perspiciatis unde omnis iste natus error sit voluptatem",
                "other_title": "WHAT WE DO",
                "other_text": "Sed ut perspiciatis unde omnis iste natus error sit voluptatem Sed ut spiciatis unde omnis iste nat oluptatem"
        },
        {
            "img": "pubs/images/Layer-60.png",
            "brand": "pubs/images/Layer-7.png",
                "title": "CAMPAIGN TITLE",
                "text": "Sed ut perspiciatis unde omnis iste natus error sit voluptatem",
                "other_title": "WHAT WE DO",
                "other_text": "Sed ut perspiciatis unde omnis iste natus error sit voluptatem Sed ut spiciatis unde omnis iste nat oluptatem"
        },
        {
            "img": "pubs/images/Layer-61.png",
            "brand": "pubs/images/Layer-12.png",
                "title": "CAMPAIGN TITLE",
                "text": "Sed ut perspiciatis unde omnis iste natus error sit voluptatem",
                "other_title": "WHAT WE DO",
                "other_text": "Sed ut perspiciatis unde omnis iste natus error sit voluptatem Sed ut spiciatis unde omnis iste nat oluptatem"
        },
        {
            "img": "pubs/images/Layer-43-copy.png",
            "brand": "pubs/images/Layer-7.png",
                "title": "CAMPAIGN TITLE",
                "text": "Sed ut perspiciatis unde omnis iste natus error sit voluptatem",
                "other_title": "WHAT WE DO",
                "other_text": "Sed ut perspiciatis unde omnis iste natus error sit voluptatem Sed ut spiciatis unde omnis iste nat oluptatem"
        },
        {
            "img": "pubs/images/Layer-64.png",
            "brand": "pubs/images/Layer-9.png",
                "title": "CAMPAIGN TITLE",
                "text": "Sed ut perspiciatis unde omnis iste natus error sit voluptatem",
                "other_title": "WHAT WE DO",
                "other_text": "Sed ut perspiciatis unde omnis iste natus error sit voluptatem Sed ut spiciatis unde omnis iste nat oluptatem"
        },
        {
            "img": "pubs/images/Layer-66.png",
            "brand": "pubs/images/Layer-11.png",
                "title": "CAMPAIGN TITLE",
                "text": "Sed ut perspiciatis unde omnis iste natus error sit voluptatem",
                "other_title": "WHAT WE DO",
                "other_text": "Sed ut perspiciatis unde omnis iste natus error sit voluptatem Sed ut spiciatis unde omnis iste nat oluptatem"
        },
        {
            "img": "pubs/images/Layer-65.png",
            "brand": "pubs/images/Layer-8.png",
                "title": "CAMPAIGN TITLE",
                "text": "Sed ut perspiciatis unde omnis iste natus error sit voluptatem",
                "other_title": "WHAT WE DO",
                "other_text": "Sed ut perspiciatis unde omnis iste natus error sit voluptatem Sed ut spiciatis unde omnis iste nat oluptatem"
        },
        {
            "img": "pubs/images/Layer-63.png",
            "brand": "pubs/images/Layer-14.png",
                "title": "CAMPAIGN TITLE",
                "text": "Sed ut perspiciatis unde omnis iste natus error sit voluptatem",
                "other_title": "WHAT WE DO",
                "other_text": "Sed ut perspiciatis unde omnis iste natus error sit voluptatem Sed ut spiciatis unde omnis iste nat oluptatem"
        },
        {
            "img": "pubs/images/Layer-62.png",
            "brand": "pubs/images/Layer-10.png",
                "title": "CAMPAIGN TITLE",
                "text": "Sed ut perspiciatis unde omnis iste natus error sit voluptatem",
                "other_title": "WHAT WE DO",
                "other_text": "Sed ut perspiciatis unde omnis iste natus error sit voluptatem Sed ut spiciatis unde omnis iste nat oluptatem"
        }
    ],
    "next": "data/empty.json"
}